Year 2/DSD Lab/week6/lab5p3_tb.vcd
$date
	Mon Sep  4 15:05:41 2023
$end
$version
	Icarus Verilog
$end
$timescale
	1ns
$end
$scope module lab5p3_tb $end
$var wire 1 ! f $end
$var reg 4 " W [3:0] $end
$scope module wt $end
$var wire 4 # W [3:0] $end
$var wire 1 ! f $end
$var wire 16 $ M [0:15] $end
$scope module st0 $end
$var wire 1 % En $end
$var wire 4 & W [3:0] $end
$var wire 16 ' Y [0:15] $end
$var wire 4 ( M [0:3] $end
$scope module st0 $end
$var wire 1 % e $end
$var wire 2 ) w [1:0] $end
$var reg 4 * y [0:3] $end
$upscope $end
$scope module st1 $end
$var wire 1 + e $end
$var wire 2 , w [1:0] $end
$var reg 4 - y [0:3] $end
$upscope $end
$scope module st2 $end
$var wire 1 . e $end
$var wire 2 / w [1:0] $end
$var reg 4 0 y [0:3] $end
$upscope $end
$scope module st3 $end
$var wire 1 1 e $end
$var wire 2 2 w [1:0] $end
$var reg 4 3 y [0:3] $end
$upscope $end
$scope module st4 $end
$var wire 1 4 e $end
$var wire 2 5 w [1:0] $end
$var reg 4 6 y [0:3] $end
$upscope $end
$upscope $end
$upscope $end
$upscope $end
$enddefinitions $end
#0
$dumpvars
b0 6
b0 5
04
b0 3
b0 2
01
b0 0
b0 /
0.
b1000 -
b0 ,
1+
b1000 *
b0 )
b1000 (
b1000000000000000 '
b0 &
1%
b1000000000000000 $
b0 #
b0 "
0!
$end
#20
1!
b100000000000000 $
b100000000000000 '
b100 -
b1 ,
b1 /
b1 2
b1 5
b1 "
b1 #
b1 &
#40
0!
b10000000000000 $
b10000000000000 '
b10 -
b10 ,
b10 /
b10 2
b10 5
b10 "
b10 #
b10 &
#60
b1000000000000 $
b1000000000000 '
b1 -
b11 ,
b11 /
b11 2
b11 5
b11 "
b11 #
b11 &
#80
1!
b1000 0
1.
0+
b100 (
b100 *
b100000000000 $
b100000000000 '
b0 -
b1 )
b0 ,
b0 /
b0 2
b0 5
b100 "
b100 #
b100 &
#100
0!
b10000000000 $
b10000000000 '
b100 0
b1 ,
b1 /
b1 2
b1 5
b101 "
b101 #
b101 &
#120
1!
b1000000000 $
b1000000000 '
b10 0
b10 ,
b10 /
b10 2
b10 5
b110 "
b110 #
b110 &
#140
0!
b100000000 $
b100000000 '
b1 0
b11 ,
b11 /
b11 2
b11 5
b111 "
b111 #
b111 &
#160
1!
b1000 3
11
0.
b10 (
b10 *
b10000000 $
b10000000 '
b0 0
b10 )
b0 ,
b0 /
b0 2
b0 5
b1000 "
b1000 #
b1000 &
#180
b1000000 $
b1000000 '
b100 3
b1 ,
b1 /
b1 2
b1 5
b1001 "
b1001 #
b1001 &
#200
0!
b100000 $
b100000 '
b10 3
b10 ,
b10 /
b10 2
b10 5
b1010 "
b1010 #
b1010 &
#220
b10000 $
b10000 '
b1 3
b11 ,
b11 /
b11 2
b11 5
b1011 "
b1011 #
b1011 &
#240
0!
b1000 6
14
01
b1 (
b1 *
b1000 $
b1000 '
b0 3
b11 )
b0 ,
b0 /
b0 2
b0 5
b1100 "
b1100 #
b1100 &
#260
1!
b100 $
b100 '
b100 6
b1 ,
b1 /
b1 2
b1 5
b1101 "
b1101 #
b1101 &
#280
0!
b10 $
b10 '
b10 6
b10 ,
b10 /
b10 2
b10 5
b1110 "
b1110 #
b1110 &
#300
1!
b1 $
b1 '
b1 6
b11 ,
b11 /
b11 2
b11 5
b1111 "
b1111 #
b1111 &
